-------------------------------------------------------------------------------
Test set: tibco.util.xmldiff.MyXMLDiffTest
-------------------------------------------------------------------------------
Tests run: 2, Failures: 0, Errors: 0, Skipped: 0, Time elapsed: 0.421 sec
