2016 Oct 18 15:41:08:861 GMT +0700 BW.uxAdapter_PushNotification_v1_1-10235-Process_Archive-11 Debug [BW-User] Main........... [PushNotification:A006161017192334362308484] Request received. Consume
r: Composite.Fulfillment.v1_1.PurchaseOffer, Provider: Adapter.PushNotification.v1_1.PushNotification/uxpcspapp2:12, ReceivedLatency(ms): 20, ESBUUID: 7816ac99-7ec5-4a7d-85a3-762cead47407
<CheckedValue>
    <ns0:PushNotification xmlns:ns0="http://schema.telkomsel.com/UXP/PushNotification/v1">
        <ns0:msidn>6281280313484</ns0:msidn>
        <ns0:deviceid>3f968a97c076ed78</ns0:deviceid>
        <ns0:source>UXP</ns0:source>
        <ns0:service>Fulfillment</ns0:service>
        <ns0:title>PurchaseOffer Smauloop Success</ns0:title>
        <ns0:content lang="id">Tibco sanity :  cycle 6</ns0:content>
        <ns0:maxdelivery>10</ns0:maxdelivery>
        <ns0:deliverycount>0</ns0:deliverycount>
    </ns0:PushNotification>
</CheckedValue>
2016 Oct 18 15:41:08:863 GMT +0700 BW.uxAdapter_PushNotification_v1_1-10235-Process_Archive-11 Debug [BW-User] ReferenceOUT... [PushNotification:A006161017192334362308484] Invoking HTTP.PUSHNOTIFIC
ATION.v1.PushNotification/10.1.89.42, Endpoint: https://10.1.89.42, URI: /api/notification/{msisdn}/, Method: POST
<CheckedValue>
    <ns0:ServiceProperties xmlns:ns0="http://schemas.telkomsel.com/UXP/Configuration/v1" Operation="HTTPRequest">
        <ns0:Item Key="Body">
            <ns0:Item Key="Text">
                <ns1:Property xmlns:ns1="http://schemas.telkomsel.com/UXP/Component/v1" Name="Type" Value="application/json"/>
                <ns1:Property xmlns:ns1="http://schemas.telkomsel.com/UXP/Component/v1" Name="Content">
                    <Content>
                        <deviceId>3f968a97c076ed78</deviceId>
                        <content>
                            <id>Tibco sanity :  cycle 6</id>
                        </content>
                        <timestamp>2016-10-18T15:41:08.859</timestamp>
                        <source>UXP</source>
                        <service>Fulfillment</service>
                        <title>PurchaseOffer Smauloop Success</title>
                    </Content>
                </ns1:Property>
            </ns0:Item>
        </ns0:Item>
        <ns1:Property xmlns:ns1="http://schemas.telkomsel.com/UXP/Component/v1" Name="Header">
            <x-msisdn>6281280313484</x-msisdn>
        </ns1:Property>
        <ns1:Property xmlns:ns1="http://schemas.telkomsel.com/UXP/Component/v1" Name="Template">
            <msisdn>6281280313484</msisdn>
        </ns1:Property>
    </ns0:ServiceProperties>
</CheckedValue>

2016 Oct 18 15:41:10:232 GMT +0700 BW.uxAdapter_PushNotification_v1_1-10235-Process_Archive-11 Debug [BW-User] ReferenceInOut. [PushNotification:A006161017192334362308484] Invoke Reference HTTP.PUSHNOTIFICATION.v1.PushNotification/HTTP.PUSHNOTIFICATION.v1.PushNotification/10.1.89.42:HTTP.PUSHNOTIFICATION.v1.PushNotification/10.1.89.42 is completed. Status: SUCCESS, ProcessingTime(ms): 1367, ElapsedTime(ms): 1368, Latency(ms): 1, Async: false

2016 Oct 18 15:41:10:235 GMT +0700 BW.uxAdapter_PushNotification_v1_1-10235-Process_Archive-11 Debug [BW-User] Main........... [PushNotification:A006161017192334362308484] Main instance is completed. Status: SUCCESS, ProcessingTime(ms): 1373, ElapsedTime(ms): 1374, Latency(ms): 1
<CheckedValue>
    <ns0:PushNotificationRs xmlns:ns0="http://schema.telkomsel.com/UXP/PushNotification/v1">
        <ns0:MessageStatus>
            <ns0:StatusCode>200</ns0:StatusCode>
            <ns0:StatusMessage>OK</ns0:StatusMessage>
            <ns0:MsgID>4840-A118115C-50EE11EB</ns0:MsgID>
        </ns0:MessageStatus>
    </ns0:PushNotificationRs>
</CheckedValue>
