6281291482594
6281291488971
6281291488970
6282170014123
6282170014124
6282170014125
6282170014126
6282170014127
6282170014130
6282170014131
6282170014132
6282170014134
6282170014135
6282170014138
6282170014139
6282170014140
6282170014141
6282170014142
6282170014143
6282170014144
6282170014145
6282170014148
6282170014150
6282170014151
6282170014161
6282170014162
6282170014163
6282170014164
6282170014166
6282170014167
6282170014168
6282170014169
6282170014171
6282170014176
6282170014177
6282170014181
6282170014182
6282170014184
6282170014185
6282170014190
6282170014193
6282170014194
6282170014196
6282170014197
6282170014198
6282170014203
6282170014204
6282170014205
6282170014206
6282170014207
6282170014208
6282170014211
6282170014213
6282170014215
6282170014216
6282170014217
6282170014218
6282170014219
6282170014225
6282170014227
6282170014228
6282170014229
6282170014230
6282170014232
6282170014235
6282170014236
6282170014237
6282170014238
6282170014239
6282170014240
6282170014242
6282170014244
6282170014245
6282170014246
6282170014247
6282170014248
6282170014250
6282170014252
6282170014253
6282170014254
6282170014255
6282170014256
6282170014257
6282170014259
6282170014260
6282170014261
6282170014262
6282170014264
6282170014266
6282170014267
6282170014271
6282170014272
6282170014274
6282170014277
6282170014278
6282170014279
6282170014281
6282170014282
6282170014283
6282170014286
6282170014287
6282170014289
6282170014291
6282170013962
6282170013963
6282170013965
6282170013966
6282170013968
6282170013969
6282170013971
6282170013973
6282170013974
6282170013976
6282170013977
6282170013978
6282170013980
6282170013981
6282170013982
6282170013984
6282170013985
6282170013986
6282170013988
6282170013991
6282170013992
6282170013995
6282170013996
6282170013997
6282170013998
6282170014001
6282170014002
6282170014003
6282170014006
6282170014012
6282170014013
6282170014015
6282170014016
6282170014017
6282170014018
6282170014019
6282170014020
6282170014022
6282170014024
6282170014027
6282170014028
6282170014029
6282170014030
6282170014033
6282170014034
6282170014037
6282170014039
6282170014040
6282170014042
6282170014043
6282170014044
6282170014047
6282170014048
6282170014049
6282170014051
6282170014052
6282170014053
6282170014054
6282170014056
6282170014057
6282170014061
6282170014062
6282170014063
6282170014064
6282170014069
6282170014070
6282170014071
6282170014073
6282170014074
6282170014075
6282170014077
6282170014079
6282170014081
6282170014082
6282170014083
6282170014084
6282170014085
6282170014088
6282170014089
6282170014090
6282170014091
6282170014093
6282170014095
6282170014097
6282170014099
6282170014100
6282170014103
6282170014105
6282170014109
6282170014110
6282170014112
6282170014113
6282170014114
6282170014115
6282170014116
6282170014117
6282170014118
6282170014119
6282170014121
6282170014122
6282170002311
6282170002312
6282170002313
6282170002314
6282170002315
6282170002316
6282170002317
6282170002319
6282170002320
6282170002325
6282170004066
6282170004069
6282170004071
6282170004072
6282170004074
6282170004076
6282170004078
6282170004079
6282170004080
6282170004081
6282170004085
6282170004086
6282170004089
6282170004091
6282170004093
6282170004095
6282170004096
6282170004097
6282170004100
6282170004101
6282170004102
6282170004103
6282170004104
6282170004105
6282170004106
6282170004107
6282170004108
6282170004109
6282170004112
6282170004114
6282170004116
6282170004117
6282170004119
6282170004120
6282170004121
6282170004122
6282170004125
6282170004129
6282170004133
6282170004065