6281291482594
6281291488971
6281291488970
6281258308797
6281258308795
6281258308792
6281258308791
6281258308790
6281258308788
6281258308784
6281258308781
6281258308779
6281258308776
6281258308775
6281258308773
6281258308770
6281258308766
6281258308762
6281258308761
6281258308760
6281258308758
6281258308755
6281258308750
6281258308739
6281258308732
6281258308731
6281258308730
6281258308728
6281258308715
6281258308710
6281258308704
6281258308693
6281258308692
6281258308684
6281258308676
6281258308657
6281258308646
6281258308643
6281258308639
6281258308634
6281258308631
6281258308625
6281258308621
6281258308603
6281258308592
6281258308588
6281258308583
6281258308566
6281258308558
6281258308552
6281258308549
6281258308546
6281258308539
6281258308530
6281258308528
6281258308504
6281258308488
6281258308475
6281258308471
6281258308465
6281258308462
6281258308437
6281258308431
6281258308430
6281258308416
6281258308412
6281258308406
6281258308405
6281258308397
6281258308394
6281258308390
6281258308365
6281258308364
6281258308358
6281258308354
6281258308348
6281258308347
6281258308344
6281258308341
6281258308340
6281258308335
6281258308334
6281258308325
6281258308323
6281258308315
6281258308306
6281258308302
6281258308300
6281258308299
6281258308292
6281258308280
6281258308273
6281258308272
6281258308271
6281258308264
6281258308251
6281258308243
6281258308228
6281258308223
6281258308217
6281258308197
6281258308191
6281258308184
6281258305376
6281258305367
6281258305348
6281258305343
6281258305320
6281258305317
6281258305316
6281258305313
6281258305301
6281258305287
6281258305278
6281258305265
6281258305262
6281258305256
6281258305252
6281258305221
6281258305215
6281258305186
6281258305175
6281258305164
6281258305161
6281258305149
6281258305131
6281258305126
6281258305120
6281258305119
6281258305117
6281258305114
6281258305090
6281258305082
6281258305079
6281258305063
6281258305047
6281258305045
6281258305032
6281258305025
6281258305024
6281258305007
6281258305003
6281258304966
6281258304963
6281258304956
6281258304640
6281258304920
6281258304913
6281258304911
6281258304907
6281258304898
6281258304887
6281258304861
6281258304808
6281258304785
6281258304770
6281258304747
6281258304743
6281258304738
6281258304735
6281258304729
6281258304728
6281258304727
6281258304713
6281258304711
6281258304708
6281258304706
6281258304697
6281258304696
6281258304695
6281258304691
6281258304690
6281258304688
6281258304670
6281258304656
6281258304652
6281258304651
6281258304634
6281258304628
6281258304626
6281258304615
6281258304611
6281258304604
6281258304597
6281258304595
6281258304586
6281258304581
6281258304579
6281258304566
6281258304556
6281258304538
6281258304534
6281258304519
6281258304518
6281258304508
6281258304508
6281258304512
6281258304484
6281258304482
6281258304480
6281258304479
6281258304474
6281258304457
6281258303614
6281258303617
6281258303618
6281258303623
6281258303624
6281258303631
6281258303648
6281258303650
6281258303651
6281258303662
6281258303665
6281258303684
6281258303691
6281258303702
6281258303706
6281258303708
6281258303732
6281258303751
6281258303754
6281258303761
6281258303789
6281258303798
6281258303801
6281258303819
6281258303820
6281258303834
6281258303850
6281258303855
6281258303856
6281258303859
6281258303529
6281258303514
6281258303505
6281258303496
6281258303494
6281258303538
6281258303478
6281258303528
6281258303530
6281258303531
6281258303541
6281258303553
6281258303556
6281258303565
6281258303575
6281258303580
6281258303592
6281258303605
6281258303606
6281258303613